﻿序號,台詞,出場人物名稱,事件,參數4,參數5,參數6,參數7,參數8,參數9,參數10
0,{PlayBGMEvent},,,Level1,,,,,,
,{CreatBackgroundEvent},,,Sprites/Scene/counter02,Background,Background,,,,
,{AddEvent},,2,條件0,,,,,,
,{Clear},,,4,1,,,,,
1,看起來剛才還有人在這裡辦公才是，文件散落在桌上…號碼機也還開著。,少女,,BSINGZIH,-180,115,,,,
2,{AddEvent},,3,條件1,,,,,,
,{BanSkip},,,,,,,,,
,{HideMap},,,0-1-2-3-5,,,,,,
,{CreatBackgroundEvent},,,Sprites/Scene/counter03,Background,Background,,,,
,啊..號碼機的數字歸零了。,少女,,BSINGZIH,-180,115,04,,,
,得把數字輸入回去才行。,少女,,BSINGZIH,-180,115,,,,
,原本的數字是多少來著？,,,,,,,,,
,{UnlockSmallEvent},,,4,,,,,,
,{CreatNumberMachine},,,NumberMachine,,,,,,
,{CreatBackgroundEvent},,,Sprites/Scene/counter02,Background,Background,,,,
,{UnlockSkip},,,,,,,,,
,這樣就沒問題了吧？,少女,,BSINGZIH,-180,115,01,,,
,正當我轉身準備離開櫃檯時。,少女,,BSINGZIH,-180,115,,,,
,{PlayEffectEvent},,,Coin01,5,,,,,
,有個東西滾落的聲音讓我停下了腳步。,,,,,,,,,
,轉頭看是一個硬幣掉落到了地板上。,,,,,,,,,
,{GetObjectEvent},Coin01,,3,300,300,,,,
,那是一枚帶著金銅色光澤的老舊硬幣。,,,,,,,,,
,上面刻著的字已經被稍微給磨平了，但還能依稀看清楚上面的文字。,,,,,,,,,
,Scrooge's property…,,,,,,,,,
,史古基的財產？,,,,,,,,,
,這是誰的呢？,,,,,,,,,
,總之先撿起來晚點放到失物招領處吧。,,,,,,,,,
,{OpenSceneEvent},,0-1-2-3-5,病房-醫院走廊-大廳-電梯間-病房走廊,,,,,,
,{UnlockCondition},,,1,,,,,,
3,{},,,,,,,,,