﻿序號,台詞,出場人物名稱,事件,參數4,參數5,參數6,參數7,參數8,參數9,參數10
0,{PlayBGMEvent},,,Stop,,,,,,
,{CreatBackgroundEvent},,,Sprites/Scene/corridor03,Background,Background,,,,
,{Clear},,,5,1,,,,,
1,{BanSkip},,,,,,,,,
,........,少女,,BSINGZIH,-180,115,,,,
,{CreatPictureEvent},,,06,,,,,,
,「你啊，真的是很喜歡小幸呢。」,,,,,,,,,
,「欸，是這樣嗎？其實我自己不太知道這種事。」,男孩,,SHEJHEN,180,115,,,,
,「不過自從小幸出現之後，發生了許許多多的事情。」,,,,,,,,,
,「開心的，不開心的，我想我可能只是..」,,,,,,,,,
,「喜歡看著她的笑臉，我自己就感到滿足了吧。」,,,,,,,,,
,「而且小幸很怕生嘛，沒有我的話會被欺負的吧。」,,,,,,,,,
,「是這樣嗎？」,少女,,BSINGZIH,-180,115,,,,
,男孩就像是要遮羞般又搔了搔自己的臉。,,,,,,,,,
,對此我笑了出來。,,,,,,,,,
,看著我的臉，他小跑步了起來，就像是想隱藏什麼似的。,,,,,,,,,
,「啊...醫院裡不要奔跑，很危——」,,,,,,,,,
,{CreatPictureEvent},,,07,,,,,,
,{PlayEffectEvent},,,FallDown,2,,,,,
,果不其然，他跌倒了。,,,,,,,,,
,「你看吧。」,,,,,,,,,
,男孩臉趴在地板上，一動也不動的注視著什麼。,,,,,,,,,
,我向他走近。,,,,,,,,,
,「啊啊！」,男孩,,SHEJHEN,180,115,,,,
,「啊！？」,少女,,BSINGZIH,-180,115,,,,
,「果然這個是，小幸遺失的日記！」,男孩,,SHEJHEN,180,115,,,,
,{CreatPictureEvent},,,08,,,,,,
,男孩注視著販賣機底下說著。,少女,,BSINGZIH,-180,115,,,,
,啊，原來遺失的是日記本啊，說到底我好像也沒有詢問掉落的物品到底是什麼。,,,,,,,,,
,不過這一跌還真的是，平常人會把東西弄丟到販賣機底下嗎？,,,,,,,,,
,看來小幸這位女孩還真是冒失呢。,,,,,,,,,
,「不過掉在很裡面，手拿不到，該怎麼辦呢..」,男孩,,SHEJHEN,180,115,,,,
,「不知道有沒有長一點的東西可以勾看看？」,,,,,,,,,
,...我記得在之前有看到那個。,少女,,BSINGZIH,-180,115,,,,
,「總之我們先回到櫃台附近找看看有沒有工具吧。」,,,,,,,,,
,{NoteMessenge},,4,,,,,,,
,{DeletePictureEvent},,,,,,,,,
,{UnlockCondition},,,0,,,,,,
,{自動換場景},,,5,,,,,,