%YAML 1.1
%TAG !u! tag:unity3d.com,2011:
--- !u!114 &11400000
MonoBehaviour:
  m_ObjectHideFlags: 0
  m_PrefabParentObject: {fileID: 0}
  m_PrefabInternal: {fileID: 0}
  m_GameObject: {fileID: 0}
  m_Enabled: 1
  m_EditorHideFlags: 0
  m_Script: {fileID: 11500000, guid: f945e777233a59f4aba40aeca29093a6, type: 3}
  m_Name: Carol1_1
  m_EditorClassIdentifier: 
  _serializedGraph: '{"version":2.8,"type":"NodeCanvas.StateMachines.FSM","translation":{"x":-5161.0,"y":-5085.0},"nodes":[{"_actionList":{"executionMode":"ActionsRunInParallel","actions":[{"volume":{},"duration":{},"$type":"NodeCanvas.Tasks.Actions.FadeBGM"},{"SceneName":["\u75c5\u623f","\u91ab\u9662\u8d70\u5eca","\u5927\u5ef3","\u96fb\u68af\u9593","\u6ac3\u53f0","\u75c5\u623f\u8d70\u5eca"],"ScenePlayer":[1,2,3,4,5,6],"$type":"NodeCanvas.Tasks.Actions.CreatMap"},{"HideNum":"3-4-5-6","$type":"NodeCanvas.Tasks.Actions.HideMap"}]},"_position":{"x":5468.0,"y":5096.0},"$type":"NodeCanvas.StateMachines.ActionState","$id":"2"},{"_actionList":{"executionMode":"ActionsRunInParallel","actions":[{"clip":{"_value":7},"$type":"NodeCanvas.Tasks.Actions.PlayBGM"},{"volume":{"_value":1.0},"duration":{"_value":2.0},"$type":"NodeCanvas.Tasks.Actions.FadeBGM"},{"sprite":8,"duration":{"_value":1.0},"$type":"NodeCanvas.Tasks.Actions.ChangeBackground"}]},"_position":{"x":5287.0,"y":5196.0},"$type":"NodeCanvas.StateMachines.ActionState","$id":"12"},{"_actionList":{"executionMode":"ActionsRunInParallel","actions":[{"dialogueTree":{"_value":9},"dialogueTreeController":{"_name":"DialogueTree","_targetVariableID":"61e4233a-1083-4ddf-8b7b-ab16723028d2"},"overrideAgent":{"_name":"Instigator","_targetVariableID":"ac99cbb6-b749-46ea-b49e-8a18474b9aaf"},"$type":"NodeCanvas.Tasks.Actions.StartDialogueTree"}]},"_position":{"x":5592.0,"y":5212.0},"$type":"NodeCanvas.StateMachines.ActionState","$id":"22"},{"_actionList":{"executionMode":"ActionsRunInParallel","actions":[{"targetList":{"_name":"Clear","_targetVariableID":"3626a3e0-872d-4105-84c9-6d723b67ff1e"},"index":{},"newValue":{"_value":true},"$type":"NodeCanvas.Tasks.Actions.SetListElement`1[[System.Boolean,
    mscorlib, Version=2.0.0.0, Culture=neutral, PublicKeyToken=b77a5c561934e089]]"},{"fsm":{"_value":2},"$type":"NodeCanvas.Tasks.Actions.SwitchFSM"}]},"_position":{"x":5796.0,"y":5287.0},"$type":"NodeCanvas.StateMachines.ActionState","$id":"29"}],"connections":[{"_condition":{"valueA":{"_name":"Clear","_targetVariableID":"3626a3e0-872d-4105-84c9-6d723b67ff1e"},"valueB":{"_value":true},"$type":"NodeCanvas.Tasks.Conditions.CheckListBoolElement"},"_sourceNode":{"$ref":"2"},"_targetNode":{"$ref":"12"},"$type":"NodeCanvas.StateMachines.FSMConnection"},{"_condition":{"valueA":{"_name":"Clear","_targetVariableID":"3626a3e0-872d-4105-84c9-6d723b67ff1e"},"valueB":{},"$type":"NodeCanvas.Tasks.Conditions.CheckListBoolElement"},"_sourceNode":{"$ref":"2"},"_targetNode":{"$ref":"22"},"$type":"NodeCanvas.StateMachines.FSMConnection"},{"_sourceNode":{"$ref":"22"},"_targetNode":{"$ref":"29"},"$type":"NodeCanvas.StateMachines.FSMConnection"}],"primeNode":{"$ref":"2"},"localBlackboard":{"_name":"Local
    Blackboard","_variables":{}}}'
  _objectReferences:
  - {fileID: 0}
  - {fileID: 11400000}
  - {fileID: 11400000, guid: 1708c8f952c08644abc0d4ed2b60a82e, type: 2}
  - {fileID: 11400000, guid: e7d9fc069625f6a4fab26845ea73e866, type: 2}
  - {fileID: 11400000, guid: 6655e14294a8d404690adc4d746163f1, type: 2}
  - {fileID: 11400000, guid: 5f39e5ce7bf72774390733a8beb6ba84, type: 2}
  - {fileID: 11400000, guid: 2e3f6e1b69f4eff4bada7797dc7f3a98, type: 2}
  - {fileID: 8300000, guid: 0c5ec9fa61671834eb9e9c7025f2c665, type: 3}
  - {fileID: 21300000, guid: 04e3464025ca51e41b39ec5c2db62973, type: 3}
  - {fileID: 11400000, guid: 75e157c46cb978d43bdfb3119da4678d, type: 2}
  _deserializationFailed: 0
