%YAML 1.1
%TAG !u! tag:unity3d.com,2011:
--- !u!114 &11400000
MonoBehaviour:
  m_ObjectHideFlags: 0
  m_PrefabParentObject: {fileID: 0}
  m_PrefabInternal: {fileID: 0}
  m_GameObject: {fileID: 0}
  m_Enabled: 1
  m_EditorHideFlags: 0
  m_Script: {fileID: 11500000, guid: 2c3f478ef69fbe04fa9ed3664a8a443e, type: 3}
  m_Name: Carol1_2
  m_EditorClassIdentifier: 
  _serializedGraph: '{"version":2.8,"type":"NodeCanvas.DialogueTrees.DialogueTree","translation":{"x":-5027.0,"y":-5119.0},"nodes":[{"_action":{"overrideAgent":{"_name":"Girl","_targetVariableID":"0f7528d7-2cd8-4dea-a1ef-3f61f69204c4"},"$type":"NodeCanvas.Tasks.Actions.CreateActor"},"_position":{"x":5512.0,"y":5097.0},"$type":"NodeCanvas.DialogueTrees.ActionNode","$id":"2"},{"_action":{"SceneNum":[3],"SceneName":["\u5927\u5ef3"],"$type":"NodeCanvas.Tasks.Actions.UnlockMap"},"_position":{"x":5511.0,"y":5174.0},"$type":"NodeCanvas.DialogueTrees.ActionNode","$id":"5"},{"statement":{"_text":"\u54c8..\u6c92\u60f3\u5230\u5c31\u9019\u6a23\u7b54\u61c9\u4e86\uff0c\u660e\u660e\u73fe\u5728\u4ec0\u9ebc\u4e8b\u60c5\u90fd\u9084\u60f3\u4e0d\u8d77\u4f86\u3002"},"_actorName":"Girl","_actorParameterID":"b246bdd1-ef73-4952-8b8b-78dd3f1c418a","_position":{"x":5398.0,"y":5261.0},"$type":"NodeCanvas.DialogueTrees.StatementNode","$id":"9"},{"statement":{"_text":"\u96d6\u7136\u5fc3\u88e1\u9019\u6a23\u62b1\u6028\uff0c\u4f46\u60f3\u5230\u7537\u5b69\u70ba\u4e86\u5973\u5b69\u5982\u6b64\u8aa0\u61c7\u7684\u8acb\u6c42\uff0c\u5fcd\u4e0d\u4f4f\u5c31\u7b54\u61c9\u4e86\u4e0b\u4f86\u3002"},"_actorName":"Girl","_actorParameterID":"b246bdd1-ef73-4952-8b8b-78dd3f1c418a","_position":{"x":5380.0,"y":5353.0},"$type":"NodeCanvas.DialogueTrees.StatementNode","$id":"11"},{"_action":{"sprite":1,"duration":{"_value":1.0},"$type":"NodeCanvas.Tasks.Actions.ChangePicture"},"_position":{"x":5512.0,"y":5438.0},"$type":"NodeCanvas.DialogueTrees.ActionNode","$id":"13"},{"statement":{"_text":"\u8a71\u8aaa\uff0c\u907a\u5931\u7684\u6771\u897f\u55ce\uff1f"},"_actorName":"Girl","_actorParameterID":"b246bdd1-ef73-4952-8b8b-78dd3f1c418a","_position":{"x":5492.0,"y":5511.0},"$type":"NodeCanvas.DialogueTrees.StatementNode","$id":"16"},{"statement":{"_text":"\u65e2\u7136\u90fd\u7b54\u61c9\u4e86\uff0c\u73fe\u5728\u8981\u5f9e\u54ea\u88e1\u958b\u59cb\u627e\u8d77\u5462\uff1f"},"_actorName":"Girl","_actorParameterID":"b246bdd1-ef73-4952-8b8b-78dd3f1c418a","_position":{"x":5446.0,"y":5593.0},"$type":"NodeCanvas.DialogueTrees.StatementNode","$id":"18"},{"_action":{"actions":[{"duration":{"_value":1.0},"$type":"NodeCanvas.Tasks.Actions.DeletePicture"},{"overrideAgent":{"_name":"Girl","_targetVariableID":"0f7528d7-2cd8-4dea-a1ef-3f61f69204c4"},"$type":"NodeCanvas.Tasks.Actions.DeleteActor"},{"$type":"NodeCanvas.Tasks.Actions.SetTextDisplay"}],"$type":"NodeCanvas.Framework.ActionList"},"_position":{"x":5516.0,"y":5679.0},"$type":"NodeCanvas.DialogueTrees.ActionNode","$id":"20"},{"_action":{"clearLevel":2,"$type":"NodeCanvas.Tasks.Actions.Clear"},"_position":{"x":5519.0,"y":5801.0},"$type":"NodeCanvas.DialogueTrees.ActionNode","$id":"28"}],"connections":[{"_sourceNode":{"$ref":"2"},"_targetNode":{"$ref":"5"},"$type":"NodeCanvas.DialogueTrees.DTConnection"},{"_sourceNode":{"$ref":"5"},"_targetNode":{"$ref":"9"},"$type":"NodeCanvas.DialogueTrees.DTConnection"},{"_sourceNode":{"$ref":"9"},"_targetNode":{"$ref":"11"},"$type":"NodeCanvas.DialogueTrees.DTConnection"},{"_sourceNode":{"$ref":"11"},"_targetNode":{"$ref":"13"},"$type":"NodeCanvas.DialogueTrees.DTConnection"},{"_sourceNode":{"$ref":"13"},"_targetNode":{"$ref":"16"},"$type":"NodeCanvas.DialogueTrees.DTConnection"},{"_sourceNode":{"$ref":"16"},"_targetNode":{"$ref":"18"},"$type":"NodeCanvas.DialogueTrees.DTConnection"},{"_sourceNode":{"$ref":"18"},"_targetNode":{"$ref":"20"},"$type":"NodeCanvas.DialogueTrees.DTConnection"},{"_sourceNode":{"$ref":"20"},"_targetNode":{"$ref":"28"},"$type":"NodeCanvas.DialogueTrees.DTConnection"}],"primeNode":{"$ref":"2"},"localBlackboard":{"_name":"Local
    Blackboard","_variables":{"Girl":{"_value":2,"_name":"Girl","_id":"0f7528d7-2cd8-4dea-a1ef-3f61f69204c4","$type":"NodeCanvas.Framework.Variable`1[[Actor,
    Assembly-CSharp, Version=0.0.0.0, Culture=neutral, PublicKeyToken=null]]"}}},"derivedData":{"actorParameters":[{"_keyName":"Girl","_id":"b246bdd1-ef73-4952-8b8b-78dd3f1c418a","_actorObject":2},{"_keyName":"boy","_id":"cb4fb321-8ee6-4a98-b589-6d9525682d7b","_actorObject":3}],"$type":"NodeCanvas.DialogueTrees.DialogueTree+DerivedSerializationData"}}'
  _objectReferences:
  - {fileID: 0}
  - {fileID: 21300000, guid: 13952f5eeb63cc84cba8783e0151ce45, type: 3}
  - {fileID: 114769656032032648, guid: 426629cb562ed8f4d8a61adbb7f229ef, type: 2}
  - {fileID: 114381381002183488, guid: 96ac913a4adef694581f8b69988bb8f1, type: 2}
  _deserializationFailed: 0
  _actorParameters:
  - _keyName: Girl
    _id: b246bdd1-ef73-4952-8b8b-78dd3f1c418a
    _actorObject: {fileID: 114769656032032648, guid: 426629cb562ed8f4d8a61adbb7f229ef,
      type: 2}
  - _keyName: boy
    _id: cb4fb321-8ee6-4a98-b589-6d9525682d7b
    _actorObject: {fileID: 114381381002183488, guid: 96ac913a4adef694581f8b69988bb8f1,
      type: 2}
